<svg width="74" height="74" viewBox="0 0 74 74" fill="none" xmlns="http://www.w3.org/2000/svg">
<g filter="url(#filter0_d_64_150)">
<rect x="13" y="9" width="48" height="48" rx="24" fill="#FCC419" shape-rendering="crispEdges"/>
<path d="M37 42.5C42.2467 42.5 46.5 38.2467 46.5 33C46.5 27.7533 42.2467 23.5 37 23.5C31.7533 23.5 27.5 27.7533 27.5 33C27.5 38.2467 31.7533 42.5 37 42.5Z" stroke="white" stroke-width="2" stroke-miterlimit="10" stroke-linecap="round" stroke-linejoin="round"/>
<path d="M36.1364 29.5455V34.7273H41.3182" stroke="white" stroke-width="2" stroke-miterlimit="10" stroke-linecap="round" stroke-linejoin="round"/>
</g>
<defs>
<filter id="filter0_d_64_150" x="0.619047" y="0.333333" width="72.7619" height="72.7619" filterUnits="userSpaceOnUse" color-interpolation-filters="sRGB">
<feFlood flood-opacity="0" result="BackgroundImageFix"/>
<feColorMatrix in="SourceAlpha" type="matrix" values="0 0 0 0 0 0 0 0 0 0 0 0 0 0 0 0 0 0 127 0" result="hardAlpha"/>
<feOffset dy="3.71429"/>
<feGaussianBlur stdDeviation="6.19048"/>
<feComposite in2="hardAlpha" operator="out"/>
<feColorMatrix type="matrix" values="0 0 0 0 0.988235 0 0 0 0 0.768627 0 0 0 0 0.0980392 0 0 0 0.4 0"/>
<feBlend mode="normal" in2="BackgroundImageFix" result="effect1_dropShadow_64_150"/>
<feBlend mode="normal" in="SourceGraphic" in2="effect1_dropShadow_64_150" result="shape"/>
</filter>
</defs>
</svg>
