<svg width="32" height="32" viewBox="0 0 32 32" fill="none" xmlns="http://www.w3.org/2000/svg">
<path fill-rule="evenodd" clip-rule="evenodd" d="M4.69652 32H27.3035C29.896 31.9969 31.9969 29.896 32 27.3035V8.75622C31.9974 6.16349 29.8962 4.06233 27.3035 4.0597H19.6505C17.0578 4.06233 14.9567 6.16349 14.954 8.75622C14.954 10.0311 13.9205 11.0647 12.6456 11.0647H4.69652C2.10379 11.0673 0.00263265 13.1685 0 15.7612V27.3035C0.00263265 29.8962 2.10379 31.9974 4.69652 32ZM2.38806 15.7612C2.38806 14.4863 3.42159 13.4527 4.69652 13.4527H12.6456C15.2381 13.4497 17.339 11.3488 17.3421 8.75622C17.3421 7.48129 18.3756 6.44776 19.6505 6.44776H27.3035C28.5784 6.44776 29.6119 7.48129 29.6119 8.75622V27.3035C29.6119 28.5784 28.5784 29.6119 27.3035 29.6119H4.69652C3.42159 29.6119 2.38806 28.5784 2.38806 27.3035V15.7612Z" fill="#4760F0"/>
<path d="M5.17413 13.4527C4.51469 13.4527 3.9801 12.9182 3.9801 12.2587V1.19403C3.9801 0.534585 4.51469 0 5.17413 0H26.8259C27.4853 0 28.0199 0.534585 28.0199 1.19403V5.25373C28.0199 5.91318 27.4853 6.44776 26.8259 6.44776C26.1664 6.44776 25.6318 5.91318 25.6318 5.25373V2.38806H6.36816V12.2587C6.36816 12.9182 5.83358 13.4527 5.17413 13.4527Z" fill="#4760F0"/>
</svg>
